field,type
Device_UID,S
Device_Manufacturer,S
Device_ManufacturerBrandName,S
Device_Model,S
Device_ModelBrandName,S
Device_OS,S
Device_OSBrandName,S
Device_Language,S
Device_Locale,S
Device_UserAgent,S
Device_IsRooted,S
Device_LTECapable,S
Device_GPSCapable,S
Device_ScreenWidth,N
Device_ScreenHeight,N
Device_Storage,F
Device_UsedStorage,F
Device_FreeStorage,F
Device_Memory,F
Device_UsedMemory,F
Device_FreeMemory,F
Device_CPU,F
Device_BatteryLevel,F
Device_BatteryState,S
Device_SystemUptime,F
Device_Speed,F
Device_Bearing,F
Device_SIMSlotCount,N
Device_SIMMCC,N
Device_SIMMNC,N
Device_SIMServiceProvider,S
Device_SIMServiceProviderBrandName,S
Device_SIMCountry,S
Device_SDKVersion,S
Connection_Start,D
Connection_End,D
Connection_Length,N
Connection_Timezone,S
Connection_Type,S
Connection_Category,S
Connection_Technology,S
Connection_GenerationCategory,S
Connection_MCC,N
Connection_MNC,N
Connection_LAC,S
Connection_CID,S
Connection_ENodeBID,S
Connection_SectorID,S
Connection_ServiceProvider,S
Connection_ServiceProviderBrandName,S
Connection_MobileChannel,N
Connection_MobileFrequency,N
Connection_Band,S
Connection_BSIC,S
Connection_PCI,N
Connection_PSC,N
Connection_Bandwidth,N
Connection_BSSID,S
Connection_SSID,S
Connection_WifiFrequency,N
Connection_WifiChannel,N
Connection_WifiManufacturer,S
Connection_InternetASN,S
Connection_InternetServiceProvider,S
Connection_InternetServiceProviderOrganization,S
Connection_InternetServiceProviderBrandName,S
Location_Latitude,F
Location_Longitude,F
Location_Altitude,F
Location_HorizontalAccuracy,F
Location_VerticalAccuracy,F
Location_Country,S
Location_Region,S
Location_City,S
Location_Geohash6,S
Location_Geohash7,S
Location_Geohash8,S
Location_CVE,S
Location_HFC,S
QOS_Date,D
QOS_LocalDate,D
QOS_UploadThroughput,F
QOS_UploadThroughputTestStatus,S
QOS_UploadThroughputTestServer,S
QOS_UploadThroughputTestSize,N
QOS_DownloadThroughput,F
QOS_DownloadThroughputTestStatus,S
QOS_DownloadThroughputTestServer,S
QOS_DownloadThroughputTestSize,F
QOS_LatencyMin,F
QOS_LatencyAverage,F
QOS_JitterMin,F
QOS_JitterAverage,F
QOS_PacketLossDiscardPercentage,F
QOS_PacketLossLostPercentage,F
QOS_ServerResponseTestStatus,S
QOS_ServerResponseTestServer,S
QOS_ServerResponseTestConfigPacketDelay,F
QOS_ServerResponseTestConfigPacketSize,F
QOS_ServerResponseTestConfigSentPackets,F
QOS_ICMPLatencyMin,F
QOS_ICMPLatencyAverage,F
QOS_ICMPPacketLossLostPercentage,F
QOS_ICMPTestStatus,S
QOS_ICMPTestServer,S
QOS_ICMPTestConfigPacketDelay,F
QOS_ICMPTestConfigPacketSize,F
QOS_ICMPTestConfigSentPackets,F
QOS_ICMPTestConfigTTL,F
QOS_ICMPTestConfigBytesSent,F
QOS_ICMPTestConfigArguments,F
QOS_LinkSpeed,F
QOS_LinkDownstreamBandwidth,N
QOS_LinkUpstreamBandwidth,N
QOS_SignalStrength,N
QOS_SignalLevel,N
QOS_ASU,N
QOS_DeltaTransmittedBytes,N
QOS_DeltaReceivedBytes,N
QOS_DeltaTransceivedBytes,N
QOS_RSRP,N
QOS_RSRQ,N
QOS_RSSNR,N
QOS_CQI,N
QOS_TA,N
QOS_ECIO,N
QOS_EVDOSNR,N
QOS_GSMBitErrorRate,N
QOS_AppState,S
QOS_VoiceServiceState,S
QOS_LTEVoiceDuplexMode,S
QOS_VPNConnected,S
QOS_UserInteraction,S
QOS_DozeMode,S
QOS_NetworkRestrictions,S
QOS_CallState,S
QOS_TestTrigger,N
Meta_CreatedDate,D